<?xml version="1.0" encoding="utf-8"?>
<!-- Generator: Adobe Illustrator 22.1.0, SVG Export Plug-In . SVG Version: 6.00 Build 0)  -->
<svg version="1.1" id="Layer_1" xmlns="http://www.w3.org/2000/svg" xmlns:xlink="http://www.w3.org/1999/xlink" x="0px" y="0px"
	 viewBox="0 0 426.5 401.9" style="enable-background:new 0 0 426.5 401.9;" xml:space="preserve">
<style type="text/css">
	.st0{fill:#2B2B2B;}
</style>
<title>lobby</title>
<path class="st0" d="M183.7,21.8C183.5,21.4,183.6,21.4,183.7,21.8L183.7,21.8z M423.8,261.4H5.8H5.7v5.6l54.8,63.9h70.3h2.7
	l-1.5-22.3h165.7l-1.5,22.3h2.7h70.3l54.8-63.9L423.8,261.4L423.8,261.4z M215.1,131.4C215.7,131.4,214.3,131.4,215.1,131.4
	L215.1,131.4z M170.5,71.3c-1.6-7.7-1.5-13.6,4-12.2c0.3,0.1,0,0,0.4,0.1c-5.5-15.7-0.8-31.8,3.6-41c1-2,2-3.7,3.2-5.2
	c0,0,0,0,0-0.1c0,0.1,0.1,0.2,0.1,0.3c0.1-0.3,0.3-0.6,0.5-1c7.4-8.9,18.3-11.1,29.7-12c25.9-1.9,35.1,11.2,35.2,11.3
	c1.6,2.4,6,7.1,6.2,14c5.5,6.5,3.4,20.9,1.5,33.7c0.7-0.3,1.1,0.2,1.7,0.2c3.4,0,5.1,4.5,3.6,12.3c-1.3,6.4-6.7,13.1-9.9,13.9
	c-1.8,8.1-2.5,15.7-4.4,18.8c-3.9,6.3-15.8,19.8-25.2,20.5c-6.4,0.5-3.1,0-8.6,0c-5.5,0-23.7-12.2-27.4-21.1
	c-2.4-5.7-2.7-12.5-4.4-18.4C176.8,85.3,171.9,78,170.5,71.3z M183.7,21.8C183.6,21.4,183.5,21.4,183.7,21.8L183.7,21.8z
	 M308.9,208.8c0.8-1.1-0.1-5.2-0.6-6.5l-3.3-5.5c-4,0.6-7.3,3.2-7.3,5.3h-0.4l2.1,3.5c0.7,1.6,4.3,4.7,6.2,4.7
	c6.3,16.5,9.3,26.2,10.5,45.4H274c-0.3-18.6-1.3-27-6.9-46.5c0.9-1,0.5-5.1,0.1-6.4l-2.2-5.3c-4.2-0.1-8,2-8.4,4.2l1.5,3.5
	c0.5,1.7,3.7,5.5,5.6,5.7c5.3,18.7,6.5,27,6.8,44.9H159.6c-0.8-17-0.1-26.5,6.8-45.8c1.9-0.2,4-3.1,4.5-4.8l1.9-4.6
	c-1.3-1.9-5-3.5-8.9-3.1l-2.2,5.3c-0.4,1.3-0.6,4.8,0.3,5.9c-5.6,19.5-7,28.9-5.9,47.1h-43.3c0.8-18.8,2.1-25.6,9.5-44
	c3.3-0.2,6.5-4.4,7.2-6l2.5-4.1c-0.6-2.1-4-4.4-8-4.7l-3.4,5.5c-0.5,1.3-1.9,6.8-1.2,7.9c-7.8,19.3-9.8,27.3-10,45.4H81.8l21.6-94
	c1.7-10.9,2.1-14.3,38.6-25.5c14.8-4.5,36.1-11.5,36.1-11.5l19.6,122.1l12.9-93.5l-4.3-12c0-2.7,5.7-9.8,5.7-9.8
	c1.8-0.1,2.6-0.1,2.9-0.1c0.1,0,0.3,0,0.5,0c2.4-0.1,4.5-0.1,4.5-0.1c3.3,4.4,4.3,7.6,5.6,10.3l-4.9,11.7l11.3,93.8l20.1-122.3
	c2,0,19.7,6.6,35.8,12.4c37.2,13.3,40,21.1,40,29.7l22.8,88.9h-30.6C318,236.4,316.7,228.1,308.9,208.8z M136.8,183.3
	c-2.4-0.9-5.1,0.1-6,2.2l-5.3,8.8c3.4,0.6,6.5,2.4,8.1,4.6l6.1-10.1C140.6,186.7,139.3,184.2,136.8,183.3z M175,182.2
	c-2.5-0.7-5.1,0.6-5.8,2.9l-4.1,9.8c3.5,0,6.8,1.2,8.9,3.1l4.5-10.5C179.1,185.2,177.5,182.9,175,182.2z M263.9,194.9l-4.2-9.8
	c-0.7-2.2-3.2-3.5-5.8-2.9c-2.5,0.6-4.1,3-3.4,5.2l4.7,11.2C257.1,196.5,260.3,195.1,263.9,194.9z M303.6,194.6l-5.4-9
	c-0.9-2.1-3.6-3.2-6-2.2c-2.4,0.9-3.7,3.4-2.8,5.5l6.6,10.9C297.1,197.3,300.1,195.3,303.6,194.6z"/>
<rect x="135.1" y="311.7" class="st0" width="159.4" height="90.2"/>
<rect x="298.2" y="338.9" class="st0" width="79.7" height="9"/>
<rect x="51.6" y="338.9" class="st0" width="79.7" height="9"/>
<rect x="298.2" y="354.5" class="st0" width="79.7" height="9"/>
<rect x="51.6" y="354.5" class="st0" width="79.7" height="9"/>
<rect x="298.2" y="371.4" class="st0" width="79.7" height="9"/>
<rect x="51.6" y="371.4" class="st0" width="79.7" height="9"/>
<rect x="298.2" y="387" class="st0" width="79.7" height="9"/>
<rect x="51.6" y="387" class="st0" width="79.7" height="9"/>
</svg>
